<?xml version="1.0" encoding="UTF-8" standalone="no"?>
<!-- Created with Inkscape (http://www.inkscape.org/) -->

<svg
   xmlns:dc="http://purl.org/dc/elements/1.1/"
   xmlns:cc="http://creativecommons.org/ns#"
   xmlns:rdf="http://www.w3.org/1999/02/22-rdf-syntax-ns#"
   xmlns:svg="http://www.w3.org/2000/svg"
   xmlns="http://www.w3.org/2000/svg"
   xmlns:sodipodi="http://sodipodi.sourceforge.net/DTD/sodipodi-0.dtd"
   xmlns:inkscape="http://www.inkscape.org/namespaces/inkscape"
   version="1.1"
   id="svg10"
   xml:space="preserve"
   width="246.72"
   height="174.72"
   viewBox="0 0 246.72 174.72"
   sodipodi:docname="kiko.svg"
   inkscape:version="0.92.3 (2405546, 2018-03-11)"><metadata
     id="metadata16"><rdf:RDF><cc:Work
         rdf:about=""><dc:format>image/svg+xml</dc:format><dc:type
           rdf:resource="http://purl.org/dc/dcmitype/StillImage" /><dc:title /></cc:Work></rdf:RDF></metadata><defs
     id="defs14"><clipPath
       clipPathUnits="userSpaceOnUse"
       id="clipPath26"><path
         d="M 0,3.0518e-5 H 185.04 V 131.04003 H 0 Z"
         id="path24"
         inkscape:connector-curvature="0"
         style="clip-rule:evenodd" /></clipPath><clipPath
       clipPathUnits="userSpaceOnUse"
       id="clipPath36"><path
         d="M -1.907e-6,131.04 H 185.04 V 3.0518e-5 H -5.722e-6"
         id="path34"
         inkscape:connector-curvature="0"
         style="clip-rule:evenodd" /></clipPath><clipPath
       clipPathUnits="userSpaceOnUse"
       id="clipPath46"><path
         d="M -1.907e-6,131.04 H 185.04 V 3.0518e-5 H -5.722e-6"
         id="path44"
         inkscape:connector-curvature="0"
         style="clip-rule:evenodd" /></clipPath><clipPath
       clipPathUnits="userSpaceOnUse"
       id="clipPath56"><path
         d="M -1.431e-6,131.04 H 185.04 V 3.0518e-5 L -2.384e-6,1.5259e-5"
         id="path54"
         inkscape:connector-curvature="0"
         style="clip-rule:evenodd" /></clipPath><clipPath
       clipPathUnits="userSpaceOnUse"
       id="clipPath66"><path
         d="M -1.431e-6,131.04 H 185.04 V 3.0518e-5 L -2.384e-6,1.5259e-5"
         id="path64"
         inkscape:connector-curvature="0"
         style="clip-rule:evenodd" /></clipPath><clipPath
       clipPathUnits="userSpaceOnUse"
       id="clipPath76"><path
         d="M -9.54e-7,131.04 H 185.04 V 3.0518e-5 L -3.815e-6,1.5259e-5"
         id="path74"
         inkscape:connector-curvature="0"
         style="clip-rule:evenodd" /></clipPath><clipPath
       clipPathUnits="userSpaceOnUse"
       id="clipPath86"><path
         d="M -9.54e-7,131.04 H 185.04 V 3.0518e-5 L -3.815e-6,1.5259e-5"
         id="path84"
         inkscape:connector-curvature="0"
         style="clip-rule:evenodd" /></clipPath><clipPath
       clipPathUnits="userSpaceOnUse"
       id="clipPath96"><path
         d="M -5.722e-6,131.04 H 185.04 V 1.5259e-5 H -5.722e-6"
         id="path94"
         inkscape:connector-curvature="0"
         style="clip-rule:evenodd" /></clipPath><clipPath
       clipPathUnits="userSpaceOnUse"
       id="clipPath106"><path
         d="M -5.722e-6,131.04 H 185.04 V 1.5259e-5 H -5.722e-6"
         id="path104"
         inkscape:connector-curvature="0"
         style="clip-rule:evenodd" /></clipPath><clipPath
       clipPathUnits="userSpaceOnUse"
       id="clipPath116"><path
         d="M -7.629e-6,131.04 H 185.04 V 3.0518e-5 L -7.629e-6,1.5259e-5"
         id="path114"
         inkscape:connector-curvature="0"
         style="clip-rule:evenodd" /></clipPath><clipPath
       clipPathUnits="userSpaceOnUse"
       id="clipPath126"><path
         d="M -7.629e-6,131.04 H 185.04 V 3.0518e-5 L -7.629e-6,1.5259e-5"
         id="path124"
         inkscape:connector-curvature="0"
         style="clip-rule:evenodd" /></clipPath><clipPath
       clipPathUnits="userSpaceOnUse"
       id="clipPath136"><path
         d="M -1.1444e-5,131.04 H 185.04 V 3.0518e-5 H -1.1444e-5"
         id="path134"
         inkscape:connector-curvature="0"
         style="clip-rule:evenodd" /></clipPath><clipPath
       clipPathUnits="userSpaceOnUse"
       id="clipPath146"><path
         d="M -1.1444e-5,131.04 H 185.04 V 3.0518e-5 H -1.1444e-5"
         id="path144"
         inkscape:connector-curvature="0"
         style="clip-rule:evenodd" /></clipPath><clipPath
       clipPathUnits="userSpaceOnUse"
       id="clipPath156"><path
         d="M -7.629e-6,131.04 H 185.04 V 3.0518e-5 L -1.1444e-5,1.5259e-5"
         id="path154"
         inkscape:connector-curvature="0"
         style="clip-rule:evenodd" /></clipPath><clipPath
       clipPathUnits="userSpaceOnUse"
       id="clipPath166"><path
         d="M -7.629e-6,131.04 H 185.04 V 3.0518e-5 L -1.1444e-5,1.5259e-5"
         id="path164"
         inkscape:connector-curvature="0"
         style="clip-rule:evenodd" /></clipPath><clipPath
       clipPathUnits="userSpaceOnUse"
       id="clipPath176"><path
         d="M -7.629e-6,131.04 H 185.04 V 1.5259e-5 H -7.629e-6"
         id="path174"
         inkscape:connector-curvature="0"
         style="clip-rule:evenodd" /></clipPath><clipPath
       clipPathUnits="userSpaceOnUse"
       id="clipPath186"><path
         d="M -7.629e-6,131.04 H 185.04 V 1.5259e-5 H -7.629e-6"
         id="path184"
         inkscape:connector-curvature="0"
         style="clip-rule:evenodd" /></clipPath><clipPath
       clipPathUnits="userSpaceOnUse"
       id="clipPath196"><path
         d="M -9.54e-7,131.04 H 185.04 V 3.0518e-5 H -4.768e-6"
         id="path194"
         inkscape:connector-curvature="0"
         style="clip-rule:evenodd" /></clipPath><clipPath
       clipPathUnits="userSpaceOnUse"
       id="clipPath206"><path
         d="M -9.54e-7,131.04 H 185.04 V 3.0518e-5 H -4.768e-6"
         id="path204"
         inkscape:connector-curvature="0"
         style="clip-rule:evenodd" /></clipPath><clipPath
       clipPathUnits="userSpaceOnUse"
       id="clipPath216"><path
         d="M -7.629e-6,131.04 H 185.04 V 1.5259e-5 H -7.629e-6"
         id="path214"
         inkscape:connector-curvature="0"
         style="clip-rule:evenodd" /></clipPath><clipPath
       clipPathUnits="userSpaceOnUse"
       id="clipPath226"><path
         d="M -7.629e-6,131.04 H 185.04 V 1.5259e-5 H -7.629e-6"
         id="path224"
         inkscape:connector-curvature="0"
         style="clip-rule:evenodd" /></clipPath><clipPath
       clipPathUnits="userSpaceOnUse"
       id="clipPath236"><path
         d="M -2.384e-6,131.04 H 185.04 V 3.0518e-5 H -3.815e-6"
         id="path234"
         inkscape:connector-curvature="0"
         style="clip-rule:evenodd" /></clipPath><clipPath
       clipPathUnits="userSpaceOnUse"
       id="clipPath246"><path
         d="M -2.384e-6,131.04 H 185.04 V 3.0518e-5 H -3.815e-6"
         id="path244"
         inkscape:connector-curvature="0"
         style="clip-rule:evenodd" /></clipPath><clipPath
       clipPathUnits="userSpaceOnUse"
       id="clipPath256"><path
         d="M 2.757e-6,-1.5259e-5 H 185.04 V 131.03998 H 2.757e-6 Z"
         id="path254"
         inkscape:connector-curvature="0"
         style="clip-rule:evenodd" /></clipPath><clipPath
       clipPathUnits="userSpaceOnUse"
       id="clipPath268"><path
         d="M 2.757e-6,-1.5259e-5 H 185.04 V 131.03998 H 2.757e-6 Z"
         id="path266"
         inkscape:connector-curvature="0"
         style="clip-rule:evenodd" /></clipPath><clipPath
       clipPathUnits="userSpaceOnUse"
       id="clipPath280"><path
         d="M 2.757e-6,-1.5259e-5 H 185.04 V 131.03998 H 2.757e-6 Z"
         id="path278"
         inkscape:connector-curvature="0"
         style="clip-rule:evenodd" /></clipPath><clipPath
       clipPathUnits="userSpaceOnUse"
       id="clipPath292"><path
         d="M 2.757e-6,-1.5259e-5 H 185.04 V 131.03998 H 2.757e-6 Z"
         id="path290"
         inkscape:connector-curvature="0"
         style="clip-rule:evenodd" /></clipPath><clipPath
       clipPathUnits="userSpaceOnUse"
       id="clipPath304"><path
         d="M 2.757e-6,-1.5259e-5 H 185.04 V 131.03998 H 2.757e-6 Z"
         id="path302"
         inkscape:connector-curvature="0"
         style="clip-rule:evenodd" /></clipPath><clipPath
       clipPathUnits="userSpaceOnUse"
       id="clipPath316"><path
         d="M -7.629e-6,3.0518e-5 H 185.03999 V 131.04003 H -7.629e-6 Z"
         id="path314"
         inkscape:connector-curvature="0"
         style="clip-rule:evenodd" /></clipPath><clipPath
       clipPathUnits="userSpaceOnUse"
       id="clipPath326"><path
         d="M 2.757e-6,-1.5259e-5 H 185.04 V 131.03998 H 2.757e-6 Z"
         id="path324"
         inkscape:connector-curvature="0"
         style="clip-rule:evenodd" /></clipPath><clipPath
       clipPathUnits="userSpaceOnUse"
       id="clipPath338"><path
         d="M 2.757e-6,-1.5259e-5 H 185.04 V 131.03998 H 2.757e-6 Z"
         id="path336"
         inkscape:connector-curvature="0"
         style="clip-rule:evenodd" /></clipPath><clipPath
       clipPathUnits="userSpaceOnUse"
       id="clipPath350"><path
         d="M 2.757e-6,-1.5259e-5 H 185.04 V 131.03998 H 2.757e-6 Z"
         id="path348"
         inkscape:connector-curvature="0"
         style="clip-rule:evenodd" /></clipPath><clipPath
       clipPathUnits="userSpaceOnUse"
       id="clipPath406"><path
         d="M 2.757e-6,-1.5259e-5 H 185.04 V 131.03998 H 2.757e-6 Z"
         id="path404"
         inkscape:connector-curvature="0"
         style="clip-rule:evenodd" /></clipPath><clipPath
       clipPathUnits="userSpaceOnUse"
       id="clipPath418"><path
         d="M 2.757e-6,-1.5259e-5 H 185.04 V 131.03998 H 2.757e-6 Z"
         id="path416"
         inkscape:connector-curvature="0"
         style="clip-rule:evenodd" /></clipPath><clipPath
       clipPathUnits="userSpaceOnUse"
       id="clipPath211"><rect
         style="fill:#241f1c;stroke-width:0.75"
         id="rect213"
         width="181.2617"
         height="123.77717"
         x="4.9449062"
         y="-123.46812"
         transform="scale(1,-1)" /></clipPath><clipPath
       clipPathUnits="userSpaceOnUse"
       id="clipPath215"><rect
         style="fill:#241f1c;stroke-width:0.75"
         id="rect217"
         width="181.2617"
         height="123.77717"
         x="4.9449062"
         y="-123.46812"
         transform="scale(1,-1)" /></clipPath><clipPath
       clipPathUnits="userSpaceOnUse"
       id="clipPath219"><rect
         style="fill:#241f1c;stroke-width:0.75"
         id="rect221"
         width="181.2617"
         height="123.77717"
         x="4.9449062"
         y="-123.46812"
         transform="scale(1,-1)" /></clipPath><clipPath
       clipPathUnits="userSpaceOnUse"
       id="clipPath223"><rect
         style="fill:#241f1c;stroke-width:0.75"
         id="rect225"
         width="181.2617"
         height="123.77717"
         x="4.9449062"
         y="-123.46812"
         transform="scale(1,-1)" /></clipPath><clipPath
       clipPathUnits="userSpaceOnUse"
       id="clipPath227"><rect
         style="fill:#241f1c;stroke-width:0.75"
         id="rect229"
         width="181.2617"
         height="123.77717"
         x="4.9449062"
         y="-123.46812"
         transform="scale(1,-1)" /></clipPath><clipPath
       clipPathUnits="userSpaceOnUse"
       id="clipPath231"><rect
         style="fill:#241f1c;stroke-width:0.75"
         id="rect233"
         width="181.2617"
         height="123.77717"
         x="4.9449062"
         y="-123.46812"
         transform="scale(1,-1)" /></clipPath><clipPath
       clipPathUnits="userSpaceOnUse"
       id="clipPath235"><rect
         style="fill:#241f1c;stroke-width:0.75"
         id="rect237"
         width="181.2617"
         height="123.77717"
         x="4.9449062"
         y="-123.46812"
         transform="scale(1,-1)" /></clipPath><clipPath
       clipPathUnits="userSpaceOnUse"
       id="clipPath239"><rect
         style="fill:#241f1c;stroke-width:0.75"
         id="rect241"
         width="181.2617"
         height="123.77717"
         x="4.9449062"
         y="-123.46812"
         transform="scale(1,-1)" /></clipPath><clipPath
       clipPathUnits="userSpaceOnUse"
       id="clipPath243"><rect
         style="fill:#241f1c;stroke-width:0.75"
         id="rect245"
         width="181.2617"
         height="123.77717"
         x="4.9449062"
         y="-123.46812"
         transform="scale(1,-1)" /></clipPath><clipPath
       clipPathUnits="userSpaceOnUse"
       id="clipPath247"><rect
         style="fill:#241f1c;stroke-width:0.75"
         id="rect249"
         width="181.2617"
         height="123.77717"
         x="4.9449062"
         y="-123.46812"
         transform="scale(1,-1)" /></clipPath><clipPath
       clipPathUnits="userSpaceOnUse"
       id="clipPath251"><rect
         style="fill:#241f1c;stroke-width:0.75"
         id="rect253"
         width="181.2617"
         height="123.77717"
         x="4.9449062"
         y="-123.46812"
         transform="scale(1,-1)" /></clipPath><clipPath
       clipPathUnits="userSpaceOnUse"
       id="clipPath255"><rect
         style="fill:#241f1c;stroke-width:0.75"
         id="rect257"
         width="181.2617"
         height="123.77717"
         x="4.9449062"
         y="-123.46812"
         transform="scale(1,-1)" /></clipPath><clipPath
       clipPathUnits="userSpaceOnUse"
       id="clipPath259"><rect
         style="fill:#241f1c;stroke-width:0.75"
         id="rect261"
         width="181.2617"
         height="123.77717"
         x="4.9449062"
         y="-123.46812"
         transform="scale(1,-1)" /></clipPath><clipPath
       clipPathUnits="userSpaceOnUse"
       id="clipPath263"><rect
         style="fill:#241f1c;stroke-width:0.75"
         id="rect265"
         width="181.2617"
         height="123.77717"
         x="4.9449062"
         y="-123.46812"
         transform="scale(1,-1)" /></clipPath><clipPath
       clipPathUnits="userSpaceOnUse"
       id="clipPath267"><rect
         style="fill:#241f1c;stroke-width:0.75"
         id="rect269"
         width="181.2617"
         height="123.77717"
         x="4.9449062"
         y="-123.46812"
         transform="scale(1,-1)" /></clipPath><clipPath
       clipPathUnits="userSpaceOnUse"
       id="clipPath271"><rect
         style="fill:#241f1c;stroke-width:0.75"
         id="rect273"
         width="181.2617"
         height="123.77717"
         x="4.9449062"
         y="-123.46812"
         transform="scale(1,-1)" /></clipPath><clipPath
       clipPathUnits="userSpaceOnUse"
       id="clipPath275"><rect
         style="fill:#241f1c;stroke-width:0.75"
         id="rect277"
         width="181.2617"
         height="123.77717"
         x="4.9449062"
         y="-123.46812"
         transform="scale(1,-1)" /></clipPath><clipPath
       clipPathUnits="userSpaceOnUse"
       id="clipPath279"><rect
         style="fill:#241f1c;stroke-width:0.75"
         id="rect281"
         width="181.2617"
         height="123.77717"
         x="4.9449062"
         y="-123.46812"
         transform="scale(1,-1)" /></clipPath><clipPath
       clipPathUnits="userSpaceOnUse"
       id="clipPath283"><rect
         style="fill:#241f1c;stroke-width:0.75"
         id="rect285"
         width="181.2617"
         height="123.77717"
         x="4.9449062"
         y="-123.46812"
         transform="scale(1,-1)" /></clipPath><clipPath
       clipPathUnits="userSpaceOnUse"
       id="clipPath287"><rect
         style="fill:#241f1c;stroke-width:0.75"
         id="rect289"
         width="181.2617"
         height="123.77717"
         x="4.9449062"
         y="-123.46812"
         transform="scale(1,-1)" /></clipPath><clipPath
       clipPathUnits="userSpaceOnUse"
       id="clipPath291"><rect
         style="fill:#241f1c;stroke-width:0.75"
         id="rect293"
         width="181.2617"
         height="123.77717"
         x="4.9449062"
         y="-123.46812"
         transform="scale(1,-1)" /></clipPath><clipPath
       clipPathUnits="userSpaceOnUse"
       id="clipPath295"><rect
         style="fill:#241f1c;stroke-width:0.75"
         id="rect297"
         width="181.2617"
         height="123.77717"
         x="4.9449062"
         y="-123.46812"
         transform="scale(1,-1)" /></clipPath><clipPath
       clipPathUnits="userSpaceOnUse"
       id="clipPath299"><rect
         style="fill:#241f1c;stroke-width:0.75"
         id="rect301"
         width="181.2617"
         height="123.77717"
         x="4.9449062"
         y="-123.46812"
         transform="scale(1,-1)" /></clipPath><clipPath
       clipPathUnits="userSpaceOnUse"
       id="clipPath303"><rect
         style="fill:#241f1c;stroke-width:0.75"
         id="rect305"
         width="181.2617"
         height="123.77717"
         x="4.9449062"
         y="-123.46812"
         transform="scale(1,-1)" /></clipPath><clipPath
       clipPathUnits="userSpaceOnUse"
       id="clipPath307"><rect
         style="fill:#241f1c;stroke-width:0.75"
         id="rect309"
         width="181.2617"
         height="123.77717"
         x="4.9449062"
         y="-123.46812"
         transform="scale(1,-1)" /></clipPath><clipPath
       clipPathUnits="userSpaceOnUse"
       id="clipPath311"><rect
         style="fill:#241f1c;stroke-width:0.75"
         id="rect313"
         width="181.2617"
         height="123.77717"
         x="4.9449062"
         y="-123.46812"
         transform="scale(1,-1)" /></clipPath><clipPath
       clipPathUnits="userSpaceOnUse"
       id="clipPath315"><rect
         style="fill:#241f1c;stroke-width:0.75"
         id="rect317"
         width="181.2617"
         height="123.77717"
         x="4.9449062"
         y="-123.46812"
         transform="scale(1,-1)" /></clipPath><clipPath
       clipPathUnits="userSpaceOnUse"
       id="clipPath319"><rect
         style="fill:#241f1c;stroke-width:0.75"
         id="rect321"
         width="181.2617"
         height="123.77717"
         x="4.9449062"
         y="-123.46812"
         transform="scale(1,-1)" /></clipPath><clipPath
       clipPathUnits="userSpaceOnUse"
       id="clipPath323"><rect
         style="fill:#241f1c;stroke-width:0.75"
         id="rect325"
         width="181.2617"
         height="123.77717"
         x="4.9449062"
         y="-123.46812"
         transform="scale(1,-1)" /></clipPath><clipPath
       clipPathUnits="userSpaceOnUse"
       id="clipPath327"><rect
         style="fill:#241f1c;stroke-width:0.75"
         id="rect329"
         width="181.2617"
         height="123.77717"
         x="4.9449062"
         y="-123.46812"
         transform="scale(1,-1)" /></clipPath><clipPath
       clipPathUnits="userSpaceOnUse"
       id="clipPath331"><rect
         style="fill:#241f1c;stroke-width:0.75"
         id="rect333"
         width="181.2617"
         height="123.77717"
         x="4.9449062"
         y="-123.46812"
         transform="scale(1,-1)" /></clipPath><clipPath
       clipPathUnits="userSpaceOnUse"
       id="clipPath335"><rect
         style="fill:#241f1c;stroke-width:0.75"
         id="rect337"
         width="181.2617"
         height="123.77717"
         x="4.9449062"
         y="-123.46812"
         transform="scale(1,-1)" /></clipPath><clipPath
       clipPathUnits="userSpaceOnUse"
       id="clipPath339"><rect
         style="fill:#241f1c;stroke-width:0.75"
         id="rect341"
         width="181.2617"
         height="123.77717"
         x="4.9449062"
         y="-123.46812"
         transform="scale(1,-1)" /></clipPath><clipPath
       clipPathUnits="userSpaceOnUse"
       id="clipPath343"><rect
         style="fill:#241f1c;stroke-width:0.75"
         id="rect345"
         width="181.2617"
         height="123.77717"
         x="4.9449062"
         y="-123.46812"
         transform="scale(1,-1)" /></clipPath><clipPath
       clipPathUnits="userSpaceOnUse"
       id="clipPath347"><rect
         style="fill:#241f1c;stroke-width:0.75"
         id="rect349"
         width="181.2617"
         height="123.77717"
         x="4.9449062"
         y="-123.46812"
         transform="scale(1,-1)" /></clipPath><clipPath
       clipPathUnits="userSpaceOnUse"
       id="clipPath351"><rect
         style="fill:#241f1c;stroke-width:0.75"
         id="rect353"
         width="181.2617"
         height="123.77717"
         x="4.9449062"
         y="-123.46812"
         transform="scale(1,-1)" /></clipPath><clipPath
       clipPathUnits="userSpaceOnUse"
       id="clipPath355"><rect
         style="fill:#241f1c;stroke-width:0.75"
         id="rect357"
         width="181.2617"
         height="123.77717"
         x="4.9449062"
         y="-123.46812"
         transform="scale(1,-1)" /></clipPath><clipPath
       clipPathUnits="userSpaceOnUse"
       id="clipPath359"><rect
         style="fill:#241f1c;stroke-width:0.75"
         id="rect361"
         width="181.2617"
         height="123.77717"
         x="4.9449062"
         y="-123.46812"
         transform="scale(1,-1)" /></clipPath><clipPath
       clipPathUnits="userSpaceOnUse"
       id="clipPath363"><rect
         style="fill:#241f1c;stroke-width:0.75"
         id="rect365"
         width="181.2617"
         height="123.77717"
         x="4.9449062"
         y="-123.46812"
         transform="scale(1,-1)" /></clipPath><clipPath
       clipPathUnits="userSpaceOnUse"
       id="clipPath367"><rect
         style="fill:#241f1c;stroke-width:0.75"
         id="rect369"
         width="181.2617"
         height="123.77717"
         x="4.9449062"
         y="-123.46812"
         transform="scale(1,-1)" /></clipPath><clipPath
       clipPathUnits="userSpaceOnUse"
       id="clipPath371"><rect
         style="fill:#241f1c;stroke-width:0.75"
         id="rect373"
         width="181.2617"
         height="123.77717"
         x="4.9449062"
         y="-123.46812"
         transform="scale(1,-1)" /></clipPath><clipPath
       clipPathUnits="userSpaceOnUse"
       id="clipPath375"><rect
         style="fill:#241f1c;stroke-width:0.75"
         id="rect377"
         width="181.2617"
         height="123.77717"
         x="4.9449062"
         y="-123.46812"
         transform="scale(1,-1)" /></clipPath><clipPath
       clipPathUnits="userSpaceOnUse"
       id="clipPath379"><rect
         style="fill:#241f1c;stroke-width:0.75"
         id="rect381"
         width="181.2617"
         height="123.77717"
         x="4.9449062"
         y="-123.46812"
         transform="scale(1,-1)" /></clipPath><clipPath
       clipPathUnits="userSpaceOnUse"
       id="clipPath383"><rect
         style="fill:#241f1c;stroke-width:0.75"
         id="rect385"
         width="181.2617"
         height="123.77717"
         x="4.9449062"
         y="-123.46812"
         transform="scale(1,-1)" /></clipPath><clipPath
       clipPathUnits="userSpaceOnUse"
       id="clipPath387"><rect
         style="fill:#241f1c;stroke-width:0.75"
         id="rect389"
         width="181.2617"
         height="123.77717"
         x="4.9449062"
         y="-123.46812"
         transform="scale(1,-1)" /></clipPath><clipPath
       clipPathUnits="userSpaceOnUse"
       id="clipPath391"><rect
         style="fill:#241f1c;stroke-width:0.75"
         id="rect393"
         width="181.2617"
         height="123.77717"
         x="4.9449062"
         y="-123.46812"
         transform="scale(1,-1)" /></clipPath><clipPath
       clipPathUnits="userSpaceOnUse"
       id="clipPath395"><rect
         style="fill:#241f1c;stroke-width:0.75"
         id="rect397"
         width="181.2617"
         height="123.77717"
         x="4.9449062"
         y="-123.46812"
         transform="scale(1,-1)" /></clipPath><clipPath
       clipPathUnits="userSpaceOnUse"
       id="clipPath399"><rect
         style="fill:#241f1c;stroke-width:0.75"
         id="rect401"
         width="181.2617"
         height="123.77717"
         x="4.9449062"
         y="-123.46812"
         transform="scale(1,-1)" /></clipPath><clipPath
       clipPathUnits="userSpaceOnUse"
       id="clipPath403"><rect
         style="fill:#241f1c;stroke-width:0.75"
         id="rect405"
         width="181.2617"
         height="123.77717"
         x="4.9449062"
         y="-123.46812"
         transform="scale(1,-1)" /></clipPath><clipPath
       clipPathUnits="userSpaceOnUse"
       id="clipPath407"><rect
         style="fill:#241f1c;stroke-width:0.75"
         id="rect409"
         width="181.2617"
         height="123.77717"
         x="4.9449062"
         y="-123.46812"
         transform="scale(1,-1)" /></clipPath><clipPath
       clipPathUnits="userSpaceOnUse"
       id="clipPath411"><rect
         style="fill:#241f1c;stroke-width:0.75"
         id="rect413"
         width="181.2617"
         height="123.77717"
         x="4.9449062"
         y="-123.46812"
         transform="scale(1,-1)" /></clipPath><clipPath
       clipPathUnits="userSpaceOnUse"
       id="clipPath415"><rect
         style="fill:#241f1c;stroke-width:0.75"
         id="rect417"
         width="181.2617"
         height="123.77717"
         x="4.9449062"
         y="-123.46812"
         transform="scale(1,-1)" /></clipPath><clipPath
       clipPathUnits="userSpaceOnUse"
       id="clipPath419"><rect
         style="fill:#241f1c;stroke-width:0.75"
         id="rect421"
         width="181.2617"
         height="123.77717"
         x="4.9449062"
         y="-123.46812"
         transform="scale(1,-1)" /></clipPath><clipPath
       clipPathUnits="userSpaceOnUse"
       id="clipPath423"><rect
         style="fill:#241f1c;stroke-width:0.75"
         id="rect425"
         width="181.2617"
         height="123.77717"
         x="4.9449062"
         y="-123.46812"
         transform="scale(1,-1)" /></clipPath><clipPath
       clipPathUnits="userSpaceOnUse"
       id="clipPath427"><rect
         style="fill:#241f1c;stroke-width:0.75"
         id="rect429"
         width="181.2617"
         height="123.77717"
         x="4.9449062"
         y="-123.46812"
         transform="scale(1,-1)" /></clipPath><clipPath
       clipPathUnits="userSpaceOnUse"
       id="clipPath431"><rect
         style="fill:#241f1c;stroke-width:0.75"
         id="rect433"
         width="181.2617"
         height="123.77717"
         x="4.9449062"
         y="-123.46812"
         transform="scale(1,-1)" /></clipPath></defs><sodipodi:namedview
     pagecolor="#ffffff"
     bordercolor="#666666"
     borderopacity="1"
     objecttolerance="10"
     gridtolerance="10"
     guidetolerance="10"
     inkscape:pageopacity="0"
     inkscape:pageshadow="2"
     inkscape:window-width="1920"
     inkscape:window-height="1017"
     id="namedview12"
     showgrid="false"
     inkscape:zoom="4.8534798"
     inkscape:cx="123.36"
     inkscape:cy="120.32604"
     inkscape:window-x="1592"
     inkscape:window-y="-8"
     inkscape:window-maximized="1"
     inkscape:current-layer="g18" /><g
     id="g18"
     inkscape:groupmode="layer"
     inkscape:label="ki"
     transform="matrix(1.3333333,0,0,-1.3333333,0,174.72)"><g
       id="g20"
       clip-path="url(#clipPath431)"><g
         id="g22"
         clip-path="url(#clipPath26)"><path
           d="M 0,0 H 185.04 V 131.04 H 0 Z"
           style="fill:#ffffff;fill-opacity:1;fill-rule:evenodd;stroke:none"
           id="path28"
           inkscape:connector-curvature="0" /></g></g><g
       id="g30"
       clip-path="url(#clipPath427)"><g
         id="g32"
         clip-path="url(#clipPath36)"><path
           d="m 12.437,59.022 c -0.625,3.937 2.06,7.636 5.998,8.261 3.937,0.626 7.636,-2.06 8.262,-5.998 0.625,-3.937 -2.061,-7.636 -5.998,-8.261 -3.938,-0.626 -7.637,2.06 -8.262,5.998 z"
           style="fill:#5b9bd5;fill-opacity:1;fill-rule:evenodd;stroke:none"
           id="path38"
           inkscape:connector-curvature="0" /></g></g><g
       id="g40"
       clip-path="url(#clipPath423)"><g
         id="g42"
         clip-path="url(#clipPath46)"><path
           d="m 12.437,59.022 c -0.625,3.937 2.06,7.636 5.998,8.261 3.937,0.626 7.636,-2.06 8.262,-5.998 0.625,-3.937 -2.061,-7.636 -5.998,-8.261 -3.938,-0.626 -7.637,2.06 -8.262,5.998 z"
           style="fill:none;stroke:#41719c;stroke-width:1;stroke-linecap:butt;stroke-linejoin:miter;stroke-miterlimit:10;stroke-dasharray:none;stroke-opacity:1"
           id="path48"
           inkscape:connector-curvature="0" /></g></g><g
       id="g50"
       clip-path="url(#clipPath419)"><g
         id="g52"
         clip-path="url(#clipPath56)"><path
           d="m 7.3841,72.839 c -0.6252,3.937 2.0602,7.636 5.9979,8.262 3.938,0.625 7.637,-2.061 8.262,-5.998 0.625,-3.938 -2.06,-7.637 -5.998,-8.262 -3.938,-0.625 -7.6367,2.06 -8.2619,5.998 z"
           style="fill:#5b9bd5;fill-opacity:1;fill-rule:evenodd;stroke:none"
           id="path58"
           inkscape:connector-curvature="0" /></g></g><g
       id="g60"
       clip-path="url(#clipPath415)"><g
         id="g62"
         clip-path="url(#clipPath66)"><path
           d="m 7.3841,72.839 c -0.6252,3.937 2.0602,7.636 5.9979,8.262 3.938,0.625 7.637,-2.061 8.262,-5.998 0.625,-3.938 -2.06,-7.637 -5.998,-8.262 -3.938,-0.625 -7.6367,2.06 -8.2619,5.998 z"
           style="fill:none;stroke:#41719c;stroke-width:1;stroke-linecap:butt;stroke-linejoin:miter;stroke-miterlimit:10;stroke-dasharray:none;stroke-opacity:1"
           id="path68"
           inkscape:connector-curvature="0" /></g></g><g
       id="g70"
       clip-path="url(#clipPath411)"><g
         id="g72"
         clip-path="url(#clipPath76)"><path
           d="m 12.636,87.025 c -0.625,3.938 2.061,7.637 5.998,8.262 3.938,0.625 7.637,-2.06 8.262,-5.998 0.625,-3.938 -2.06,-7.637 -5.998,-8.262 -3.937,-0.625 -7.636,2.06 -8.262,5.998 z"
           style="fill:#5b9bd5;fill-opacity:1;fill-rule:evenodd;stroke:none"
           id="path78"
           inkscape:connector-curvature="0" /></g></g><g
       id="g80"
       clip-path="url(#clipPath407)"><g
         id="g82"
         clip-path="url(#clipPath86)"><path
           d="m 12.636,87.025 c -0.625,3.938 2.061,7.637 5.998,8.262 3.938,0.625 7.637,-2.06 8.262,-5.998 0.625,-3.938 -2.06,-7.637 -5.998,-8.262 -3.937,-0.625 -7.636,2.06 -8.262,5.998 z"
           style="fill:none;stroke:#41719c;stroke-width:1;stroke-linecap:butt;stroke-linejoin:miter;stroke-miterlimit:10;stroke-dasharray:none;stroke-opacity:1"
           id="path88"
           inkscape:connector-curvature="0" /></g></g><g
       id="g90"
       clip-path="url(#clipPath403)"><g
         id="g92"
         clip-path="url(#clipPath96)"><path
           d="m 26.616,92.688 c -0.625,3.938 2.061,7.632 5.998,8.262 3.938,0.63 7.637,-2.06 8.262,-5.998 0.626,-3.938 -2.06,-7.637 -5.998,-8.262 -3.937,-0.625 -7.636,2.06 -8.262,5.998 z"
           style="fill:#5b9bd5;fill-opacity:1;fill-rule:evenodd;stroke:none"
           id="path98"
           inkscape:connector-curvature="0" /></g></g><g
       id="g100"
       clip-path="url(#clipPath399)"><g
         id="g102"
         clip-path="url(#clipPath106)"><path
           d="m 26.616,92.688 c -0.625,3.938 2.061,7.632 5.998,8.262 3.938,0.63 7.637,-2.06 8.262,-5.998 0.626,-3.938 -2.06,-7.637 -5.998,-8.262 -3.937,-0.625 -7.636,2.06 -8.262,5.998 z"
           style="fill:none;stroke:#41719c;stroke-width:1;stroke-linecap:butt;stroke-linejoin:miter;stroke-miterlimit:10;stroke-dasharray:none;stroke-opacity:1"
           id="path108"
           inkscape:connector-curvature="0" /></g></g><g
       id="g110"
       clip-path="url(#clipPath395)"><g
         id="g112"
         clip-path="url(#clipPath116)"><path
           d="m 40.437,85.851 c -0.625,3.938 2.06,7.637 5.998,8.262 3.938,0.625 7.637,-2.06 8.262,-5.998 0.625,-3.938 -2.06,-7.637 -5.998,-8.262 -3.938,-0.625 -7.637,2.06 -8.262,5.998 z"
           style="fill:#5b9bd5;fill-opacity:1;fill-rule:evenodd;stroke:none"
           id="path118"
           inkscape:connector-curvature="0" /></g></g><g
       id="g120"
       clip-path="url(#clipPath391)"><g
         id="g122"
         clip-path="url(#clipPath126)"><path
           d="m 40.437,85.851 c -0.625,3.938 2.06,7.637 5.998,8.262 3.938,0.625 7.637,-2.06 8.262,-5.998 0.625,-3.938 -2.06,-7.637 -5.998,-8.262 -3.938,-0.625 -7.637,2.06 -8.262,5.998 z"
           style="fill:none;stroke:#41719c;stroke-width:1;stroke-linecap:butt;stroke-linejoin:miter;stroke-miterlimit:10;stroke-dasharray:none;stroke-opacity:1"
           id="path128"
           inkscape:connector-curvature="0" /></g></g><g
       id="g130"
       clip-path="url(#clipPath387)"><g
         id="g132"
         clip-path="url(#clipPath136)"><path
           d="m 40.363,70.765 c -0.625,3.938 2.06,7.637 5.998,8.262 3.938,0.625 7.637,-2.06 8.262,-5.998 0.625,-3.938 -2.06,-7.637 -5.998,-8.262 -3.938,-0.625 -7.637,2.06 -8.262,5.998 z"
           style="fill:#5b9bd5;fill-opacity:1;fill-rule:evenodd;stroke:none"
           id="path138"
           inkscape:connector-curvature="0" /></g></g><g
       id="g140"
       clip-path="url(#clipPath383)"><g
         id="g142"
         clip-path="url(#clipPath146)"><path
           d="m 40.363,70.765 c -0.625,3.938 2.06,7.637 5.998,8.262 3.938,0.625 7.637,-2.06 8.262,-5.998 0.625,-3.938 -2.06,-7.637 -5.998,-8.262 -3.938,-0.625 -7.637,2.06 -8.262,5.998 z"
           style="fill:none;stroke:#41719c;stroke-width:1;stroke-linecap:butt;stroke-linejoin:miter;stroke-miterlimit:10;stroke-dasharray:none;stroke-opacity:1"
           id="path148"
           inkscape:connector-curvature="0" /></g></g><g
       id="g150"
       clip-path="url(#clipPath379)"><g
         id="g152"
         clip-path="url(#clipPath156)"><path
           d="m 39.743,56.047 c -0.625,3.938 2.061,7.637 5.998,8.262 3.938,0.625 7.637,-2.06 8.262,-5.998 0.625,-3.938 -2.06,-7.637 -5.998,-8.262 -3.937,-0.625 -7.636,2.06 -8.262,5.998 z"
           style="fill:#5b9bd5;fill-opacity:1;fill-rule:evenodd;stroke:none"
           id="path158"
           inkscape:connector-curvature="0" /></g></g><g
       id="g160"
       clip-path="url(#clipPath375)"><g
         id="g162"
         clip-path="url(#clipPath166)"><path
           d="m 39.743,56.047 c -0.625,3.938 2.061,7.637 5.998,8.262 3.938,0.625 7.637,-2.06 8.262,-5.998 0.625,-3.938 -2.06,-7.637 -5.998,-8.262 -3.937,-0.625 -7.636,2.06 -8.262,5.998 z"
           style="fill:none;stroke:#41719c;stroke-width:1;stroke-linecap:butt;stroke-linejoin:miter;stroke-miterlimit:10;stroke-dasharray:none;stroke-opacity:1"
           id="path168"
           inkscape:connector-curvature="0" /></g></g><g
       id="g170"
       clip-path="url(#clipPath371)"><g
         id="g172"
         clip-path="url(#clipPath176)"><path
           d="m 34.242,43.023 c -0.626,3.938 2.06,7.637 5.998,8.262 3.937,0.626 7.636,-2.06 8.262,-5.998 0.625,-3.937 -2.061,-7.636 -5.998,-8.261 -3.938,-0.626 -7.637,2.06 -8.262,5.997 z"
           style="fill:#ffff00;fill-opacity:1;fill-rule:evenodd;stroke:none"
           id="path178"
           inkscape:connector-curvature="0" /></g></g><g
       id="g180"
       clip-path="url(#clipPath367)"><g
         id="g182"
         clip-path="url(#clipPath186)"><path
           d="m 34.242,43.023 c -0.626,3.938 2.06,7.637 5.998,8.262 3.937,0.626 7.636,-2.06 8.262,-5.998 0.625,-3.937 -2.061,-7.636 -5.998,-8.261 -3.938,-0.626 -7.637,2.06 -8.262,5.997 z"
           style="fill:none;stroke:#41719c;stroke-width:1;stroke-linecap:butt;stroke-linejoin:miter;stroke-miterlimit:10;stroke-dasharray:none;stroke-opacity:1"
           id="path188"
           inkscape:connector-curvature="0" /></g></g><g
       id="g190"
       clip-path="url(#clipPath363)"><g
         id="g192"
         clip-path="url(#clipPath196)"><path
           d="m 16.348,45.023 c -0.625,3.938 2.061,7.637 5.998,8.262 3.938,0.625 7.637,-2.06 8.262,-5.998 0.626,-3.938 -2.06,-7.637 -5.998,-8.262 -3.937,-0.625 -7.636,2.06 -8.262,5.998 z"
           style="fill:#ffc000;fill-opacity:1;fill-rule:evenodd;stroke:none"
           id="path198"
           inkscape:connector-curvature="0" /></g></g><g
       id="g200"
       clip-path="url(#clipPath359)"><g
         id="g202"
         clip-path="url(#clipPath206)"><path
           d="m 16.348,45.023 c -0.625,3.938 2.061,7.637 5.998,8.262 3.938,0.625 7.637,-2.06 8.262,-5.998 0.626,-3.938 -2.06,-7.637 -5.998,-8.262 -3.937,-0.625 -7.636,2.06 -8.262,5.998 z"
           style="fill:none;stroke:#41719c;stroke-width:1;stroke-linecap:butt;stroke-linejoin:miter;stroke-miterlimit:10;stroke-dasharray:none;stroke-opacity:1"
           id="path208"
           inkscape:connector-curvature="0" /></g></g><g
       id="g210"
       clip-path="url(#clipPath355)"><g
         id="g212"
         clip-path="url(#clipPath216)"><path
           d="m 45.79,32.902 c -0.625,3.937 2.06,7.636 5.998,8.262 3.937,0.625 7.636,-2.061 8.262,-5.998 0.625,-3.938 -2.061,-7.637 -5.998,-8.262 -3.938,-0.626 -7.637,2.06 -8.262,5.998 z"
           style="fill:#5b9bd5;fill-opacity:1;fill-rule:evenodd;stroke:none"
           id="path218"
           inkscape:connector-curvature="0" /></g></g><g
       id="g220"
       clip-path="url(#clipPath351)"><g
         id="g222"
         clip-path="url(#clipPath226)"><path
           d="m 45.79,32.902 c -0.625,3.937 2.06,7.636 5.998,8.262 3.937,0.625 7.636,-2.061 8.262,-5.998 0.625,-3.938 -2.061,-7.637 -5.998,-8.262 -3.938,-0.626 -7.637,2.06 -8.262,5.998 z"
           style="fill:none;stroke:#41719c;stroke-width:1;stroke-linecap:butt;stroke-linejoin:miter;stroke-miterlimit:10;stroke-dasharray:none;stroke-opacity:1"
           id="path228"
           inkscape:connector-curvature="0" /></g></g><g
       id="g230"
       clip-path="url(#clipPath347)"><g
         id="g232"
         clip-path="url(#clipPath236)"><path
           d="m 5.8392,33.869 c -0.6252,3.937 2.0602,7.636 5.9978,8.261 3.938,0.626 7.637,-2.06 8.262,-5.997 0.625,-3.938 -2.06,-7.637 -5.998,-8.262 -3.938,-0.626 -7.6366,2.06 -8.2618,5.998 z"
           style="fill:#5b9bd5;fill-opacity:1;fill-rule:evenodd;stroke:none"
           id="path238"
           inkscape:connector-curvature="0" /></g></g><g
       id="g240"
       clip-path="url(#clipPath343)"><g
         id="g242"
         clip-path="url(#clipPath246)"><path
           d="m 5.8392,33.869 c -0.6252,3.937 2.0602,7.636 5.9978,8.261 3.938,0.626 7.637,-2.06 8.262,-5.997 0.625,-3.938 -2.06,-7.637 -5.998,-8.262 -3.938,-0.626 -7.6366,2.06 -8.2618,5.998 z"
           style="fill:none;stroke:#41719c;stroke-width:1;stroke-linecap:butt;stroke-linejoin:miter;stroke-miterlimit:10;stroke-dasharray:none;stroke-opacity:1"
           id="path248"
           inkscape:connector-curvature="0" /></g></g><g
       id="g250"
       clip-path="url(#clipPath339)"><g
         id="g252"
         clip-path="url(#clipPath256)"><text
   transform="matrix(1,0,0,-1,20.064,42.696)"
   style="font-variant:normal;font-weight:bold;font-size:11.03999996px;font-family:Calibri;-inkscape-font-specification:Calibri-Bold;writing-mode:lr-tb;fill:#000000;fill-opacity:1;fill-rule:nonzero;stroke:none"
   id="text260"><tspan
     x="0"
     y="0"
     id="tspan258">A</tspan></text>

</g></g><g
       id="g262"
       clip-path="url(#clipPath335)"><g
         id="g264"
         clip-path="url(#clipPath268)"><text
   transform="matrix(1,0,0,-1,38.112,40.464)"
   style="font-variant:normal;font-weight:bold;font-size:11.06400013px;font-family:Calibri;-inkscape-font-specification:Calibri-Bold;writing-mode:lr-tb;fill:#000000;fill-opacity:1;fill-rule:nonzero;stroke:none"
   id="text272"><tspan
     x="0"
     y="0"
     id="tspan270">B</tspan></text>

</g></g><g
       id="g274"
       clip-path="url(#clipPath331)"><g
         id="g276"
         clip-path="url(#clipPath280)"><text
   transform="matrix(1,0,0,-1,5.496,109.58)"
   style="font-variant:normal;font-weight:bold;font-size:15.98400021px;font-family:Calibri;-inkscape-font-specification:Calibri-Bold;writing-mode:lr-tb;fill:#000000;fill-opacity:1;fill-rule:nonzero;stroke:none"
   id="text284"><tspan
     x="0 8.6473436 17.166817 25.766209 32.511456"
     y="0"
     sodipodi:role="line"
     id="tspan282">Knock</tspan></text>

</g></g><g
       id="g286"
       clip-path="url(#clipPath327)"><g
         id="g288"
         clip-path="url(#clipPath292)"><text
   transform="matrix(1,0,0,-1,45.72,109.58)"
   style="font-variant:normal;font-weight:bold;font-size:15.98400021px;font-family:Calibri;-inkscape-font-specification:Calibri-Bold;writing-mode:lr-tb;fill:#000000;fill-opacity:1;fill-rule:nonzero;stroke:none"
   id="text296"><tspan
     x="0"
     y="0"
     id="tspan294">-</tspan></text>

</g></g><g
       id="g298"
       clip-path="url(#clipPath323)"><g
         id="g300"
         clip-path="url(#clipPath304)"><text
   transform="matrix(1,0,0,-1,50.64,109.58)"
   style="font-variant:normal;font-weight:bold;font-size:15.98400021px;font-family:Calibri;-inkscape-font-specification:Calibri-Bold;writing-mode:lr-tb;fill:#00b050;fill-opacity:1;fill-rule:nonzero;stroke:none"
   id="text308"><tspan
     x="0 3.959964"
     y="0"
     sodipodi:role="line"
     id="tspan306">in</tspan></text>

</g></g><g
       id="g310"
       clip-path="url(#clipPath319)"><g
         id="g312"
         clip-path="url(#clipPath316)"><path
           d="M 71.04,131.04 V 0.32339"
           style="fill:none;stroke:#000000;stroke-width:0.47999999;stroke-linecap:butt;stroke-linejoin:miter;stroke-miterlimit:10;stroke-dasharray:none;stroke-opacity:1"
           id="path318"
           inkscape:connector-curvature="0" /></g></g><g
       id="g320"
       clip-path="url(#clipPath315)"><g
         id="g322"
         clip-path="url(#clipPath326)"><text
   transform="matrix(1,0,0,-1,80.424,109.56)"
   style="font-variant:normal;font-weight:bold;font-size:15.96000004px;font-family:Calibri;-inkscape-font-specification:Calibri-Bold;writing-mode:lr-tb;fill:#000000;fill-opacity:1;fill-rule:nonzero;stroke:none"
   id="text330"><tspan
     x="0 8.6343603 17.157 25.7754 32.4786"
     y="0"
     sodipodi:role="line"
     id="tspan328">Knock</tspan></text>

</g></g><g
       id="g332"
       clip-path="url(#clipPath311)"><g
         id="g334"
         clip-path="url(#clipPath338)"><text
   transform="matrix(1,0,0,-1,120.65,109.56)"
   style="font-variant:normal;font-weight:bold;font-size:15.96000004px;font-family:Calibri;-inkscape-font-specification:Calibri-Bold;writing-mode:lr-tb;fill:#000000;fill-opacity:1;fill-rule:nonzero;stroke:none"
   id="text342"><tspan
     x="0"
     y="0"
     id="tspan340">-</tspan></text>

</g></g><g
       id="g344"
       clip-path="url(#clipPath307)"><g
         id="g346"
         clip-path="url(#clipPath350)"><text
   transform="matrix(1,0,0,-1,125.57,109.56)"
   style="font-variant:normal;font-weight:bold;font-size:15.96000004px;font-family:Calibri;-inkscape-font-specification:Calibri-Bold;writing-mode:lr-tb;fill:#7030a0;fill-opacity:1;fill-rule:nonzero;stroke:none"
   id="text354"><tspan
     x="0 8.6503201 17.22084"
     y="0"
     sodipodi:role="line"
     id="tspan352">out</tspan></text>

</g></g><path
       d="m 75.24,12.12 c 0,3.976 3.224,7.2 7.2,7.2 3.976,0 7.2,-3.224 7.2,-7.2 0,-3.9765 -3.224,-7.2 -7.2,-7.2 -3.976,0 -7.2,3.2235 -7.2,7.2 z"
       style="fill:#5b9bd5;fill-opacity:1;fill-rule:evenodd;stroke:none"
       id="path356"
       inkscape:connector-curvature="0"
       clip-path="url(#clipPath303)" /><path
       d="m 75.24,12.12 c 0,3.976 3.224,7.2 7.2,7.2 3.976,0 7.2,-3.224 7.2,-7.2 0,-3.9765 -3.224,-7.2 -7.2,-7.2 -3.976,0 -7.2,3.2235 -7.2,7.2 z"
       style="fill:none;stroke:#41719c;stroke-width:0.95999998;stroke-linecap:butt;stroke-linejoin:miter;stroke-miterlimit:10;stroke-dasharray:none;stroke-opacity:1"
       id="path358"
       inkscape:connector-curvature="0"
       clip-path="url(#clipPath299)" /><path
       d="m 77.52,27.06 c 0,4.01 3.224,7.26 7.2,7.26 3.976,0 7.2,-3.25 7.2,-7.26 0,-4.01 -3.224,-7.26 -7.2,-7.26 -3.976,0 -7.2,3.25 -7.2,7.26 z"
       style="fill:#ffc000;fill-opacity:1;fill-rule:evenodd;stroke:none"
       id="path360"
       inkscape:connector-curvature="0"
       clip-path="url(#clipPath295)" /><path
       d="m 77.52,27.06 c 0,4.01 3.224,7.26 7.2,7.26 3.976,0 7.2,-3.25 7.2,-7.26 0,-4.01 -3.224,-7.26 -7.2,-7.26 -3.976,0 -7.2,3.25 -7.2,7.26 z"
       style="fill:none;stroke:#41719c;stroke-width:0.95999998;stroke-linecap:butt;stroke-linejoin:miter;stroke-miterlimit:10;stroke-dasharray:none;stroke-opacity:1"
       id="path362"
       inkscape:connector-curvature="0"
       clip-path="url(#clipPath291)" /><path
       d="m 79.08,42.24 c 0,3.976 3.224,7.2 7.2,7.2 3.976,0 7.2,-3.224 7.2,-7.2 0,-3.976 -3.224,-7.2 -7.2,-7.2 -3.976,0 -7.2,3.224 -7.2,7.2 z"
       style="fill:#5b9bd5;fill-opacity:1;fill-rule:evenodd;stroke:none"
       id="path364"
       inkscape:connector-curvature="0"
       clip-path="url(#clipPath287)" /><path
       d="m 79.08,42.24 c 0,3.976 3.224,7.2 7.2,7.2 3.976,0 7.2,-3.224 7.2,-7.2 0,-3.976 -3.224,-7.2 -7.2,-7.2 -3.976,0 -7.2,3.224 -7.2,7.2 z"
       style="fill:none;stroke:#41719c;stroke-width:0.95999998;stroke-linecap:butt;stroke-linejoin:miter;stroke-miterlimit:10;stroke-dasharray:none;stroke-opacity:1"
       id="path366"
       inkscape:connector-curvature="0"
       clip-path="url(#clipPath283)" /><path
       d="m 81.48,56.46 c 0,4.01 3.224,7.26 7.2,7.26 3.976,0 7.2,-3.25 7.2,-7.26 0,-4.01 -3.224,-7.26 -7.2,-7.26 -3.976,0 -7.2,3.25 -7.2,7.26 z"
       style="fill:#5b9bd5;fill-opacity:1;fill-rule:evenodd;stroke:none"
       id="path368"
       inkscape:connector-curvature="0"
       clip-path="url(#clipPath279)" /><path
       d="m 81.48,56.46 c 0,4.01 3.224,7.26 7.2,7.26 3.976,0 7.2,-3.25 7.2,-7.26 0,-4.01 -3.224,-7.26 -7.2,-7.26 -3.976,0 -7.2,3.25 -7.2,7.26 z"
       style="fill:none;stroke:#41719c;stroke-width:0.95999998;stroke-linecap:butt;stroke-linejoin:miter;stroke-miterlimit:10;stroke-dasharray:none;stroke-opacity:1"
       id="path370"
       inkscape:connector-curvature="0"
       clip-path="url(#clipPath275)" /><path
       d="m 91.92,67.38 c 0,4.01 3.224,7.26 7.2,7.26 3.98,0 7.2,-3.25 7.2,-7.26 0,-4.01 -3.22,-7.26 -7.2,-7.26 -3.976,0 -7.2,3.25 -7.2,7.26 z"
       style="fill:#5b9bd5;fill-opacity:1;fill-rule:evenodd;stroke:none"
       id="path372"
       inkscape:connector-curvature="0"
       clip-path="url(#clipPath271)" /><path
       d="m 91.92,67.38 c 0,4.01 3.224,7.26 7.2,7.26 3.98,0 7.2,-3.25 7.2,-7.26 0,-4.01 -3.22,-7.26 -7.2,-7.26 -3.976,0 -7.2,3.25 -7.2,7.26 z"
       style="fill:none;stroke:#41719c;stroke-width:0.95999998;stroke-linecap:butt;stroke-linejoin:miter;stroke-miterlimit:10;stroke-dasharray:none;stroke-opacity:1"
       id="path374"
       inkscape:connector-curvature="0"
       clip-path="url(#clipPath267)" /><path
       d="m 103.08,77.64 c 0,3.976 3.25,7.2 7.26,7.2 4.01,0 7.26,-3.224 7.26,-7.2 0,-3.976 -3.25,-7.2 -7.26,-7.2 -4.01,0 -7.26,3.224 -7.26,7.2 z"
       style="fill:#5b9bd5;fill-opacity:1;fill-rule:evenodd;stroke:none"
       id="path376"
       inkscape:connector-curvature="0"
       clip-path="url(#clipPath263)" /><path
       d="m 103.08,77.64 c 0,3.976 3.25,7.2 7.26,7.2 4.01,0 7.26,-3.224 7.26,-7.2 0,-3.976 -3.25,-7.2 -7.26,-7.2 -4.01,0 -7.26,3.224 -7.26,7.2 z"
       style="fill:none;stroke:#41719c;stroke-width:0.95999998;stroke-linecap:butt;stroke-linejoin:miter;stroke-miterlimit:10;stroke-dasharray:none;stroke-opacity:1"
       id="path378"
       inkscape:connector-curvature="0"
       clip-path="url(#clipPath259)" /><path
       d="m 117.6,79.68 c 0,3.976 3.22,7.2 7.2,7.2 3.98,0 7.2,-3.224 7.2,-7.2 0,-3.976 -3.22,-7.2 -7.2,-7.2 -3.98,0 -7.2,3.224 -7.2,7.2 z"
       style="fill:#5b9bd5;fill-opacity:1;fill-rule:evenodd;stroke:none"
       id="path380"
       inkscape:connector-curvature="0"
       clip-path="url(#clipPath255)" /><path
       d="m 117.6,79.68 c 0,3.976 3.22,7.2 7.2,7.2 3.98,0 7.2,-3.224 7.2,-7.2 0,-3.976 -3.22,-7.2 -7.2,-7.2 -3.98,0 -7.2,3.224 -7.2,7.2 z"
       style="fill:none;stroke:#41719c;stroke-width:0.95999998;stroke-linecap:butt;stroke-linejoin:miter;stroke-miterlimit:10;stroke-dasharray:none;stroke-opacity:1"
       id="path382"
       inkscape:connector-curvature="0"
       clip-path="url(#clipPath251)" /><path
       d="m 129.36,88.02 c 0,4.01 3.22,7.26 7.2,7.26 3.98,0 7.2,-3.25 7.2,-7.26 0,-4.01 -3.22,-7.26 -7.2,-7.26 -3.98,0 -7.2,3.25 -7.2,7.26 z"
       style="fill:#5b9bd5;fill-opacity:1;fill-rule:evenodd;stroke:none"
       id="path384"
       inkscape:connector-curvature="0"
       clip-path="url(#clipPath247)" /><path
       d="m 129.36,88.02 c 0,4.01 3.22,7.26 7.2,7.26 3.98,0 7.2,-3.25 7.2,-7.26 0,-4.01 -3.22,-7.26 -7.2,-7.26 -3.98,0 -7.2,3.25 -7.2,7.26 z"
       style="fill:none;stroke:#41719c;stroke-width:0.95999998;stroke-linecap:butt;stroke-linejoin:miter;stroke-miterlimit:10;stroke-dasharray:none;stroke-opacity:1"
       id="path386"
       inkscape:connector-curvature="0"
       clip-path="url(#clipPath243)" /><path
       d="m 143.52,93.84 c 0,3.976 3.25,7.2 7.26,7.2 4.01,0 7.26,-3.224 7.26,-7.2 0,-3.976 -3.25,-7.2 -7.26,-7.2 -4.01,0 -7.26,3.224 -7.26,7.2 z"
       style="fill:#5b9bd5;fill-opacity:1;fill-rule:evenodd;stroke:none"
       id="path388"
       inkscape:connector-curvature="0"
       clip-path="url(#clipPath239)" /><path
       d="m 143.52,93.84 c 0,3.976 3.25,7.2 7.26,7.2 4.01,0 7.26,-3.224 7.26,-7.2 0,-3.976 -3.25,-7.2 -7.26,-7.2 -4.01,0 -7.26,3.224 -7.26,7.2 z"
       style="fill:none;stroke:#41719c;stroke-width:0.95999998;stroke-linecap:butt;stroke-linejoin:miter;stroke-miterlimit:10;stroke-dasharray:none;stroke-opacity:1"
       id="path390"
       inkscape:connector-curvature="0"
       clip-path="url(#clipPath235)" /><path
       d="m 158.04,92.64 c 0,3.976 3.22,7.2 7.2,7.2 3.98,0 7.2,-3.224 7.2,-7.2 0,-3.976 -3.22,-7.2 -7.2,-7.2 -3.98,0 -7.2,3.224 -7.2,7.2 z"
       style="fill:#ffff00;fill-opacity:1;fill-rule:evenodd;stroke:none"
       id="path392"
       inkscape:connector-curvature="0"
       clip-path="url(#clipPath231)" /><path
       d="m 158.04,92.64 c 0,3.976 3.22,7.2 7.2,7.2 3.98,0 7.2,-3.224 7.2,-7.2 0,-3.976 -3.22,-7.2 -7.2,-7.2 -3.98,0 -7.2,3.224 -7.2,7.2 z"
       style="fill:none;stroke:#41719c;stroke-width:0.95999998;stroke-linecap:butt;stroke-linejoin:miter;stroke-miterlimit:10;stroke-dasharray:none;stroke-opacity:1"
       id="path394"
       inkscape:connector-curvature="0"
       clip-path="url(#clipPath227)" /><path
       d="m 169.08,102.48 c 0,3.98 3.22,7.2 7.2,7.2 3.98,0 7.2,-3.22 7.2,-7.2 0,-3.976 -3.22,-7.2 -7.2,-7.2 -3.98,0 -7.2,3.224 -7.2,7.2 z"
       style="fill:#5b9bd5;fill-opacity:1;fill-rule:evenodd;stroke:none"
       id="path396"
       inkscape:connector-curvature="0"
       clip-path="url(#clipPath223)" /><path
       d="m 169.08,102.48 c 0,3.98 3.22,7.2 7.2,7.2 3.98,0 7.2,-3.22 7.2,-7.2 0,-3.976 -3.22,-7.2 -7.2,-7.2 -3.98,0 -7.2,3.224 -7.2,7.2 z"
       style="fill:none;stroke:#41719c;stroke-width:0.95999998;stroke-linecap:butt;stroke-linejoin:miter;stroke-miterlimit:10;stroke-dasharray:none;stroke-opacity:1"
       id="path398"
       inkscape:connector-curvature="0"
       clip-path="url(#clipPath219)" /><g
       id="g400"
       clip-path="url(#clipPath215)"><g
         id="g402"
         clip-path="url(#clipPath406)"><text
   transform="matrix(1,0,0,-1,81.24,23.88)"
   style="font-variant:normal;font-weight:bold;font-size:11.03999996px;font-family:Calibri;-inkscape-font-specification:Calibri-Bold;writing-mode:lr-tb;fill:#000000;fill-opacity:1;fill-rule:nonzero;stroke:none"
   id="text410"><tspan
     x="0"
     y="0"
     id="tspan408">A</tspan></text>

</g></g><g
       id="g412"
       clip-path="url(#clipPath211)"><g
         id="g414"
         clip-path="url(#clipPath418)"><text
   transform="matrix(1,0,0,-1,162.38,89.448)"
   style="font-variant:normal;font-weight:bold;font-size:11.06400013px;font-family:Calibri;-inkscape-font-specification:Calibri-Bold;writing-mode:lr-tb;fill:#000000;fill-opacity:1;fill-rule:nonzero;stroke:none"
   id="text422"><tspan
     x="0"
     y="0"
     id="tspan420">B</tspan></text>

</g></g></g></svg>